…
# Lokalitetsdata         
dat2 <- read_excel("Input_data/Lokalitetsdata_insekter i slåttemark.xlsx") %>% 
  mutate(Vegetasjonssone = 
           factor(Vegetasjonssone, levels = c("Nordboreal", "Mellomboreal", "Sørboreal", "Boreonemoral")))
```

## Artsdata

```r
dat
```

```
## # A tibble: 2,421 x 10
##    Art   Primær Pollinator Sekundær Order Family Gruppe Status2015 X__1 
##    <chr> <chr>  <chr>      <chr>    <chr> <chr>  <chr>  <chr>      <chr>
##  1 Abax~ 4      <NA>       <NA>     Cole~ Carab~ Biller <NA>       <NA> 
##  2 Abia~ 3      x          <NA>     Hyme~ Cimbi~ Veps   <NA>       <NA> 
##  3 Abia~ 3      x          <NA>     Hyme~ Cimbi~ Veps   <NA>       <NA> 
##  4 Abro~ 3      x          <NA>     Lepi~ Noctu~ Somme~ <NA>       <NA> 
##  5 Acal~ 3      <NA>       <NA>     Hemi~ Tingi~ Nebbm~ <NA>       <NA> 
##  6 Acal~ 3      <NA>       <NA>     Hemi~ Tingi~ Nebbm~ <NA>       <NA> 
##  7 Acan~ 3      <NA>       <NA>     Hemi~ Acant~ Nebbm~ <NA>       <NA> 
##  8 Acan~ 3      <NA>       <NA>     Thys~ Phlae~ Trips  <NA>       Alle~
##  9 Acid~ 1b     x          <NA>     Dipt~ Tephr~ Tovin~ <NA>       <NA> 
## 10 Acid~ 4      <NA>       <NA>     Cole~ Staph~ Biller <NA>       <NA> 
## # ... with 2,411 more rows, and 1 more variable: Status <fct>
```
…
